<?xml version="1.0" encoding="UTF-8" standalone="no"?>
<!DOCTYPE svg PUBLIC "-//W3C//DTD SVG 1.1//EN"
 "http://www.w3.org/Graphics/SVG/1.1/DTD/svg11.dtd">
<!-- Generated by graphviz version 2.26.0 (20091210.2329)
 -->
<!-- Title: G Pages: 1 -->
<svg width="529pt" height="268pt"
 viewBox="0.00 0.00 529.00 268.00" xmlns="http://www.w3.org/2000/svg" xmlns:xlink="http://www.w3.org/1999/xlink">
<g id="graph1" class="graph" transform="scale(1 1) rotate(0) translate(4 264)">
<title>G</title>
<polygon fill="white" stroke="white" points="-4,5 -4,-264 526,-264 526,5 -4,5"/>
<!-- n1 -->
<g id="node1" class="node"><title>n1</title>
<ellipse fill="none" stroke="black" cx="386" cy="-241" rx="58.1882" ry="19.0919"/>
<text text-anchor="middle" x="386" y="-237.9" font-family="Times Roman,serif" font-size="14.00">Head Office</text>
</g>
<!-- n2 -->
<g id="node2" class="node"><title>n2</title>
<ellipse fill="none" stroke="black" cx="329" cy="-167" rx="58.1882" ry="19.0919"/>
<text text-anchor="middle" x="329" y="-163.9" font-family="Times Roman,serif" font-size="14.00">Novosibirsk</text>
</g>
<!-- n2&#45;&gt;n1 -->
<g id="edge2" class="edge"><title>n2&#45;&gt;n1</title>
<path fill="none" stroke="black" d="M343.384,-185.673C349.662,-193.824 357.162,-203.562 364.109,-212.58"/>
<polygon fill="black" stroke="black" points="364.298,-212.826 371.129,-215.138 371.621,-222.333 364.791,-220.02 364.298,-212.826"/>
</g>
<!-- n3 -->
<g id="node3" class="node"><title>n3</title>
<ellipse fill="none" stroke="black" cx="444" cy="-167" rx="38.8909" ry="19.0919"/>
<text text-anchor="middle" x="444" y="-163.9" font-family="Times Roman,serif" font-size="14.00">Berdsk</text>
</g>
<!-- n3&#45;&gt;n1 -->
<g id="edge4" class="edge"><title>n3&#45;&gt;n1</title>
<path fill="none" stroke="black" d="M429.96,-184.913C423.411,-193.269 415.46,-203.413 408.13,-212.765"/>
<polygon fill="black" stroke="black" points="407.919,-213.034 407.366,-220.224 400.517,-222.479 401.07,-215.289 407.919,-213.034"/>
</g>
<!-- n4 -->
<g id="node4" class="node"><title>n4</title>
<ellipse fill="none" stroke="black" cx="203" cy="-93" rx="46.1672" ry="19.0919"/>
<text text-anchor="middle" x="203" y="-89.9" font-family="Times Roman,serif" font-size="14.00">Sovetsky</text>
</g>
<!-- n4&#45;&gt;n2 -->
<g id="edge6" class="edge"><title>n4&#45;&gt;n2</title>
<path fill="none" stroke="black" d="M229.721,-108.693C247.275,-119.003 270.53,-132.66 290.119,-144.165"/>
<polygon fill="black" stroke="black" points="290.219,-144.224 297.418,-143.813 300.566,-150.301 293.367,-150.711 290.219,-144.224"/>
</g>
<!-- n5 -->
<g id="node5" class="node"><title>n5</title>
<ellipse fill="none" stroke="black" cx="329" cy="-93" rx="62.2254" ry="19.0919"/>
<text text-anchor="middle" x="329" y="-89.9" font-family="Times Roman,serif" font-size="14.00">Pervomaisky</text>
</g>
<!-- n5&#45;&gt;n2 -->
<g id="edge8" class="edge"><title>n5&#45;&gt;n2</title>
<path fill="none" stroke="black" d="M329,-112.057C329,-119.251 329,-127.64 329,-135.664"/>
<polygon fill="black" stroke="black" points="329,-135.751 333,-141.751 329,-147.751 325,-141.751 329,-135.751"/>
</g>
<!-- n6 -->
<g id="node6" class="node"><title>n6</title>
<ellipse fill="none" stroke="black" cx="465" cy="-93" rx="56.0679" ry="19.0919"/>
<text text-anchor="middle" x="465" y="-89.9" font-family="Times Roman,serif" font-size="14.00">Oktyabrsky</text>
</g>
<!-- n6&#45;&gt;n2 -->
<g id="edge10" class="edge"><title>n6&#45;&gt;n2</title>
<path fill="none" stroke="black" d="M435.154,-109.24C415.978,-119.674 390.816,-133.365 369.803,-144.798"/>
<polygon fill="black" stroke="black" points="369.787,-144.807 366.428,-151.188 359.246,-150.543 362.605,-144.161 369.787,-144.807"/>
</g>
<!-- n7 -->
<g id="node7" class="node"><title>n7</title>
<ellipse fill="none" stroke="black" cx="75" cy="-19" rx="75.1594" ry="19.0919"/>
<text text-anchor="middle" x="75" y="-15.9" font-family="Times Roman,serif" font-size="14.00">Verhnyaya Zone</text>
</g>
<!-- n7&#45;&gt;n4 -->
<g id="edge12" class="edge"><title>n7&#45;&gt;n4</title>
<path fill="none" stroke="black" d="M105.334,-36.537C123.34,-46.9465 146.315,-60.2292 165.458,-71.2961"/>
<polygon fill="black" stroke="black" points="165.541,-71.3442 172.738,-70.8843 175.93,-77.3503 168.734,-77.8102 165.541,-71.3442"/>
</g>
<!-- n8 -->
<g id="node8" class="node"><title>n8</title>
<ellipse fill="none" stroke="black" cx="203" cy="-19" rx="34.8574" ry="19.0919"/>
<text text-anchor="middle" x="203" y="-15.9" font-family="Times Roman,serif" font-size="14.00">Schya</text>
</g>
<!-- n8&#45;&gt;n4 -->
<g id="edge14" class="edge"><title>n8&#45;&gt;n4</title>
<path fill="none" stroke="black" d="M203,-38.0568C203,-45.2512 203,-53.6398 203,-61.6643"/>
<polygon fill="black" stroke="black" points="203,-61.7505 207,-67.7506 203,-73.7505 199,-67.7505 203,-61.7505"/>
</g>
<!-- n9 -->
<g id="node9" class="node"><title>n9</title>
<ellipse fill="none" stroke="black" cx="294" cy="-19" rx="38.1838" ry="19.0919"/>
<text text-anchor="middle" x="294" y="-15.9" font-family="Times Roman,serif" font-size="14.00">Shlyuz</text>
</g>
<!-- n9&#45;&gt;n4 -->
<g id="edge16" class="edge"><title>n9&#45;&gt;n4</title>
<path fill="none" stroke="black" d="M273.804,-35.423C262.037,-44.9915 246.96,-57.2522 233.745,-67.9985"/>
<polygon fill="black" stroke="black" points="233.398,-68.2805 231.267,-75.1694 224.088,-75.8515 226.22,-68.9625 233.398,-68.2805"/>
</g>
</g>
</svg>
